module gitlab.com/shammianand/rssagg

go 1.22.1

require github.com/joho/godotenv v1.5.1

require (
	github.com/caarlos0/env/v10 v10.0.0
	gorm.io/driver/postgres v1.5.7
	gorm.io/gorm v1.25.9
)

require (
	github.com/jackc/pgpassfile v1.0.0 // indirect
	github.com/jackc/pgservicefile v0.0.0-20231201235250-de7065d80cb9 // indirect
	github.com/jackc/pgx/v5 v5.5.5 // indirect
	github.com/jackc/puddle/v2 v2.2.1 // indirect
	github.com/jinzhu/inflection v1.0.0 // indirect
	github.com/jinzhu/now v1.1.5 // indirect
	golang.org/x/crypto v0.21.0 // indirect
	golang.org/x/sync v0.6.0 // indirect
	golang.org/x/text v0.14.0 // indirect
)
